01_04_tibbles_short.knit
…
---
# Indexing tibbles: columns 

```r
# All rows, first 2 columns
cities_tbl[ ,1:2]
# same as
cities_tbl[ ,c("cities", "population")]
```

```
## # A tibble: 10 x 2
##   cities   population
##   <chr>         <dbl>
## 1 Istanbul   15100000
## 2 Moscow     12500000
## 3 London      9000000
## # ... with 7 more rows
```
…
