02_04_tidyr.knit
…
```r
step1 <- pivot_longer(
    cities_untidy,                  # the tibble
    Turkey_Istanbul:France_Paris,   # the columns to pivot from:to
    names_to = "location")          # name of the new column
```

--

```
## # A tibble: 20 x 3
##   type       location                   value
##   <chr>      <chr>                      <dbl>
## 1 population Turkey_Istanbul         15100000
## 2 population Russia_Moscow           12500000
## 3 population UK_London                9000000
## 4 population Russia_Saint Petersburg  5400000
## 5 population Germany_Berlin           3800000
## # ... with 15 more rows
```

---
# Step 2: `separate()`

**Multiple variable values that are united into one** can be separated using `separate`

```
## # A tibble: 20 x 3
##   type       location           value
##   <chr>      <chr>              <dbl>
## 1 population Turkey_Istanbul 15100000
## 2 population Russia_Moscow   12500000
## # ... with 18 more rows
```

```r
step2 <- separate(
  step1,                       # the tibble
  location,                    # the column to separate
  sep = "_",                   # the separator
  into = c("country", "city")) # names of new columns
```

--

```
## # A tibble: 20 x 4
##   type       country city        value
##   <chr>      <chr>   <chr>       <dbl>
## 1 population Turkey  Istanbul 15100000
## 2 population Russia  Moscow   12500000
## # ... with 18 more rows
```

--

The opposite function exists as well and is called `unite`. Check out `?unite` for details.

---
# Step 3: `pivot_wider()`

**One observation split into multiple rows** can solved with `pivot_wider`

```
## # A tibble: 20 x 4
##   type       country city        value
##   <chr>      <chr>   <chr>       <dbl>
## 1 population Turkey  Istanbul 15100000
## 2 population Russia  Moscow   12500000
## # ... with 18 more rows
```

```r
step3 <- pivot_wider(
  step2,                      # the tibble
  names_from = type,          # the variables
  values_from = value)        # the values
```

--

```
## # A tibble: 10 x 4
##   country city             population area_km2
##   <chr>   <chr>                 <dbl>    <dbl>
## 1 Turkey  Istanbul           15100000     2576
## 2 Russia  Moscow             12500000     2561
## 3 UK      London              9000000     1572
## 4 Russia  Saint Petersburg    5400000     1439
## 5 Germany Berlin              3800000      891
## # ... with 5 more rows
```
…
