02_02_dplyr.knit
…
- **Other arguments** specify what to do exactly

- **Return** a tibble

---
# Example data

Soybean production for different use by year and country.

```r
soybean_use
```

```
## # A tibble: 9,897 x 6
##   entity code   year human_food animal_feed processed
##   <chr>  <chr> <dbl>      <dbl>       <dbl>     <dbl>
## 1 Africa <NA>   1961      33000        6000     14000
## 2 Africa <NA>   1962      43000        7000     17000
## 3 Africa <NA>   1963      31000        7000      5000
## 4 Africa <NA>   1964      43000        6000     14000
## 5 Africa <NA>   1965      34000        6000     12000
## # ... with 9,892 more rows
```
…
--

- `near()` to compare floating points (use instead of `==` for doubles)

---
# `filter()`

Filter rows that contain the values for Germany

```r
filter(soybean_use, entity == "Germany")
```

```
## # A tibble: 53 x 6
##   entity  code   year human_food animal_feed processed
##   <chr>   <chr> <dbl>      <dbl>       <dbl>     <dbl>
## 1 Germany DEU    1961          0        3000   1042000
## 2 Germany DEU    1962          0        3000    935000
## 3 Germany DEU    1963          0        3000   1092000
## 4 Germany DEU    1964          0        3000   1096000
## 5 Germany DEU    1965          0        3000   1435000
## # ... with 48 more rows
```
…
`filter()` goes through each row of the data and return only those rows where the value for `entity` is `"Germany"` 

---
# `filter()` + `%in%`

Use the `%in%` operator to filter multiple countries

```r
countries_select <- c("Germany", "Austria", "Switzerland")
filter(soybean_use, entity %in% countries_select)
```

```
## # A tibble: 159 x 6
##   entity  code   year human_food animal_feed processed
##   <chr>   <chr> <dbl>      <dbl>       <dbl>     <dbl>
## 1 Austria AUT    1961          0           0         0
## 2 Austria AUT    1962          0           0         0
## 3 Austria AUT    1963          0           0         0
## 4 Austria AUT    1964          0           0         0
## 5 Austria AUT    1965          0           0         0
## # ... with 154 more rows
```

---
# `filter()` + `is.na()`

Filter only rows that don't have a country code (i.e. the continents etc.)

```r
filter(soybean_use, is.na(code))
```

```
## # A tibble: 1,734 x 6
##   entity code   year human_food animal_feed processed
##   <chr>  <chr> <dbl>      <dbl>       <dbl>     <dbl>
## 1 Africa <NA>   1961      33000        6000     14000
## 2 Africa <NA>   1962      43000        7000     17000
## 3 Africa <NA>   1963      31000        7000      5000
## 4 Africa <NA>   1964      43000        6000     14000
## 5 Africa <NA>   1965      34000        6000     12000
## # ... with 1,729 more rows
```
…
#### Combine different filters:

Select rows where

- the value for `years` is between 1970 and 1980
- the value for `entity` is Germany

```r
filter(soybean_use, between(year, 1970, 1980) & entity == "Germany")
```

```
## # A tibble: 11 x 6
##   entity  code   year human_food animal_feed processed
##   <chr>   <chr> <dbl>      <dbl>       <dbl>     <dbl>
## 1 Germany DEU    1970          0        3000   2118000
## 2 Germany DEU    1971          0        3000   2119000
## 3 Germany DEU    1972          0        5000   2271000
## 4 Germany DEU    1973          0        3000   2820000
## 5 Germany DEU    1974          0        3000   3704000
## # ... with 6 more rows
```
…
--

- `any_of()` and `all_of()`: variables that are contained in a character vector

---
# `select()`

Select the variables entity, year and human food

```r
select(soybean_use, entity, year, human_food)
```

```
## # A tibble: 9,897 x 3
##   entity  year human_food
##   <chr>  <dbl>      <dbl>
## 1 Africa  1961      33000
## 2 Africa  1962      43000
## # ... with 9,895 more rows
```

--

Remove variables using `-`

```r
select(soybean_use, -entity, -year, -human_food)
```

```
## # A tibble: 9,897 x 3
##   code  animal_feed processed
##   <chr>       <dbl>     <dbl>
## 1 <NA>         6000     14000
## 2 <NA>         7000     17000
## # ... with 9,895 more rows
```

---
# `select()` + `ends_with()`

Select all columns that end with `"d"`

```r
select(soybean_use, ends_with("d"))
```

```
## # A tibble: 9,897 x 3
##   human_food animal_feed processed
##        <dbl>       <dbl>     <dbl>
## 1      33000        6000     14000
## 2      43000        7000     17000
## 3      31000        7000      5000
## # ... with 9,894 more rows
```
…
```r
cols <- c("sample_", "year", "processed", "entity")
```

--

`any_of()` returns any columns that match an element in `cols`

```r
select(soybean_use, any_of(cols))
```

```
## # A tibble: 9,897 x 3
##    year processed entity
##   <dbl>     <dbl> <chr> 
## 1  1961     14000 Africa
## # ... with 9,896 more rows
```
…
---
# `select()` + `from:to`

Multiple consecutive columns can be selected using the `from:to` structure with either column id or variable name:

```r
select(soybean_use, 1:3)
select(soybean_use, code:animal_feed)
```

```
## # A tibble: 9,897 x 4
##   code   year human_food animal_feed
##   <chr> <dbl>      <dbl>       <dbl>
## 1 <NA>   1961      33000        6000
## 2 <NA>   1962      43000        7000
## 3 <NA>   1963      31000        7000
## # ... with 9,894 more rows
```
…
# .large[`arrange()`]
## change order of observations (rows)

---
# `arrange()`

Arrange the rows by **ascending** values of the processed variable:

```r
arrange(soybean_use, processed)
```

```
## # A tibble: 9,897 x 6
##   entity  code   year human_food animal_feed processed
##   <chr>   <chr> <dbl>      <dbl>       <dbl>     <dbl>
## 1 Albania ALB    1961          0          NA         0
## 2 Albania ALB    1962          0          NA         0
## 3 Albania ALB    1963          0          NA         0
## # ... with 9,894 more rows
```
…
Arranging also works for character columns. They will be sorted **alphabetically**.

---
# `arrange()`

We can also sort rows by multiple variables

```r
# sort first by year, then by entity
arrange(soybean_use, year, entity)
```

```
## # A tibble: 9,897 x 6
##   entity   code   year human_food animal_feed processed
##   <chr>    <chr> <dbl>      <dbl>       <dbl>     <dbl>
## 1 Africa   <NA>   1961      33000        6000     14000
## 2 Albania  ALB    1961          0          NA         0
## 3 Algeria  DZA    1961          0           0        NA
## 4 Americas <NA>   1961       7000       96000  11656000
## # ... with 9,893 more rows
```
…
---
# `mutate()`

New columns can be added based on values from other columns

```r
mutate(soybean_use, sum_human_animal = human_food + animal_feed)
```

```
## # A tibble: 9,897 x 7
##   entity code   year human_food animal_feed processed sum_human_animal
##   <chr>  <chr> <dbl>      <dbl>       <dbl>     <dbl>            <dbl>
## 1 Africa <NA>   1961      33000        6000     14000            39000
## 2 Africa <NA>   1962      43000        7000     17000            50000
## 3 Africa <NA>   1963      31000        7000      5000            38000
## # ... with 9,894 more rows
```
…
`case_when()` can combine many cases into one.

```r
mutate(soybean_use,
  legislation = case_when(
    year < 2000 & year >= 1980 ~ "legislation_1",    # case 1
    year >= 2000 ~ "legislation_2",                  # case 2
    TRUE ~ "no_legislation"                          # any other cases
  )
)
```

```
## # A tibble: 9,897 x 7
##   entity code   year human_food animal_feed processed legislation   
##   <chr>  <chr> <dbl>      <dbl>       <dbl>     <dbl> <chr>         
## 1 Africa <NA>   1961      33000        6000     14000 no_legislation
## 2 Africa <NA>   1962      43000        7000     17000 no_legislation
## 3 Africa <NA>   1963      31000        7000      5000 no_legislation
## # ... with 9,894 more rows
```
…
--

```r
# summarize the grouped data
summarize(soybean_use_group,
          total_animal = sum(animal_feed, na.rm = TRUE),
          total_human = sum(human_food, na.rm = TRUE))
```

```
## # A tibble: 53 x 3
##    year total_animal total_human
##   <dbl>        <dbl>       <dbl>
## 1  1961      1503000    16994000
## 2  1962      1800000    17326000
## # ... with 51 more rows
```
…
---
# `count()`

Counts observations by group

```r
# count rows grouped by year
count(soybean_use, year)

# or if the data is already grouped by year
count(soybean_use_group)
```

```
## # A tibble: 53 x 2
## # Groups:   year [53]
##    year     n
##   <dbl> <int>
## 1  1961   178
## 2  1962   178
## 3  1963   178
## 4  1964   178
## # ... with 49 more rows
```
…
```
## # A tibble: 2 x 6
##   entity code   year human_food animal_feed processed
##   <chr>  <chr> <dbl>      <dbl>       <dbl>     <dbl>
## 1 Africa <NA>   1961      33000        6000     14000
## 2 Africa <NA>   1962      43000        7000     17000
```

```r
tbl_b
```

```
## # A tibble: 9,896 x 6
##   entity code   year human_food animal_feed processed
##   <chr>  <chr> <dbl>      <dbl>       <dbl>     <dbl>
## 1 Africa <NA>   1962      43000        7000     17000
## 2 Africa <NA>   1963      31000        7000      5000
## # ... with 9,894 more rows
```

---
# Combine two tibbles by row `bind_rows`

Bind the rows together with `bind_rows()`:

```r
bind_rows(tbl_a, tbl_b)
```

```
## # A tibble: 9,898 x 6
##   entity code   year human_food animal_feed processed
##   <chr>  <chr> <dbl>      <dbl>       <dbl>     <dbl>
## 1 Africa <NA>   1961      33000        6000     14000
## 2 Africa <NA>   1962      43000        7000     17000
## # ... with 9,896 more rows
```

--

You can also add an ID-column to indicate which line belonged to which table:

```r
bind_rows(a = tbl_a, b = tbl_b, .id = "id")
```

```
## # A tibble: 9,898 x 7
##   id    entity code   year human_food animal_feed processed
##   <chr> <chr>  <chr> <dbl>      <dbl>       <dbl>     <dbl>
## 1 a     Africa <NA>   1961      33000        6000     14000
## 2 a     Africa <NA>   1962      43000        7000     17000
## 3 b     Africa <NA>   1962      43000        7000     17000
## # ... with 9,895 more rows
```
…
```r
bind_rows(a = tbl_a, b= tbl_b, c = tbl_c, ..., .id = "id")
```

---
# Join tibbles with `left_join()`

Situation: Two tables that share some but not all columns.

```r
soybean_use
```

```
## # A tibble: 9,897 x 6
##   entity code   year human_food animal_feed processed
##   <chr>  <chr> <dbl>      <dbl>       <dbl>     <dbl>
## 1 Africa <NA>   1961      33000        6000     14000
## 2 Africa <NA>   1962      43000        7000     17000
## # ... with 9,895 more rows
```

```r
# table with the gdp of the country/continent for each year
gdp
```

```
## # A tibble: 9,897 x 3
##   entity  year   gdp
##   <chr>  <dbl> <dbl>
## 1 Africa  1961  5.63
## 2 Africa  1962  5.63
## # ... with 9,895 more rows
```

---
# Join tibbles with `left_join()`

Join the two tables by the two common columns `entity` and `year`

```r
left_join(soybean_use, gdp, by = c("entity", "year"))
```

```
## # A tibble: 9,897 x 7
##   entity code   year human_food animal_feed processed   gdp
##   <chr>  <chr> <dbl>      <dbl>       <dbl>     <dbl> <dbl>
## 1 Africa <NA>   1961      33000        6000     14000  5.63
## 2 Africa <NA>   1962      43000        7000     17000  5.63
## 3 Africa <NA>   1963      31000        7000      5000  5.63
## # ... with 9,894 more rows
```
…
