03_02_linear_models.knit
…
# .large[How to fit linear models in ]

---
# The data

We use productivity data from grassland sites. <br>
The data set is called `prod` and has  3 variables: site, productivity and richness (species richness):

```r
prod
```

```
## # A tibble: 400 x 3
##   site  richness productivity
##   <fct>    <dbl>        <dbl>
## 1 site1       23         122.
## 2 site1       26         158.
## 3 site1       24         165 
## 4 site1       25         165.
## # ... with 396 more rows
```
…
#### Option 2: Use the `predict()` function

--

```r
# step 1: create some data to predict from
pred_data <- tidyr::expand_grid(
  richness = min(prod$richness):max(prod$richness), 
  site = c("site1", "site2")
)
```

```
## # A tibble: 84 x 2
##   richness site 
##      <int> <chr>
## 1       13 site1
## 2       13 site2
## 3       14 site1
## # ... with 81 more rows
```
…
Only categorical predictors.

--

**Example**: Data set `chickwts` about the weight of chickens fed with different diets. 

.pull-left[

```r
chickwts
```

```
## # A tibble: 71 x 2
##   weight feed     
##    <dbl> <fct>    
## 1    179 horsebean
## 2    160 horsebean
## 3    136 horsebean
## 4    227 horsebean
## # ... with 67 more rows
```
…
