03_02_glm.knit
…
.pull-left[

- **Response variable:**
  - number of plant species
- **Predictor variables:**
  - Plot biomass
  - soil pH

```r
specdat
```

```
## # A tibble: 90 x 3
##   pH    Biomass Species
##   <chr>   <dbl>   <dbl>
## 1 high    0.469      30
## 2 high    1.73       39
## 3 high    2.09       44
## 4 high    3.93       35
## # ... with 86 more rows
```
…
---
# The data

Winter mortality of black-tailed prairie dogs

.pull-left[

```r
pdogs
```

```
## # A tibble: 8 x 5
##   mated hibernation min.weight n.tot n.death
##   <chr> <chr>       <chr>      <dbl>   <dbl>
## 1 No    Yes         Yes           60       5
## 2 Yes   Yes         Yes           17       2
## 3 No    No          Yes            8       1
## # ... with 5 more rows
```
…
.footnote-right[By I, <a rel="nofollow" class="external text" href="https://sites.google.com/site/thebrockeninglory/">Brocken Inaglory</a>, <a href="http://creativecommons.org/licenses/by-sa/3.0/" title="Creative Commons Attribution-Share Alike 3.0">CC BY-SA 3.0</a>, <a href="https://commons.wikimedia.org/w/index.php?curid=2542206">Link</a>]

---
# The response variable

The response variables (`p.dead` or `p.surv` depending on the question) are now added to the data

```
## # A tibble: 8 x 8
##   mated hibernation min.weight n.tot n.death n.surv p.surv p.dead
##   <chr> <chr>       <chr>      <dbl>   <dbl>  <dbl>  <dbl>  <dbl>
## 1 No    Yes         Yes           60       5     55  0.917 0.0833
## 2 Yes   Yes         Yes           17       2     15  0.882 0.118 
## 3 No    No          Yes            8       1      7  0.875 0.125 
## 4 Yes   No          Yes            2       0      2  1     0     
## 5 No    Yes         No           187      35    152  0.813 0.187 
## # ... with 3 more rows
```
…
