03_01_linear_models.knit
…
# How to fit linear models in 

---
# The data

We use productivity data from grassland sites. <br>
The data set is called `prod` and has  3 variables: site, productivity and richness (species richness):

```r
prod
```

```
## # A tibble: 400 x 3
##   site  richness productivity
##   <fct>    <dbl>        <dbl>
## 1 site1       23         122.
## 2 site1       26         158.
## 3 site1       24         165 
## 4 site1       25         165.
## # ... with 396 more rows
```
…
Only categorical predictors.

**Example**: built-in data set of R called `chickwts`.
The data set is about the weight of chickens fed with different diets. 

.pull-left[

```r
chickwts
```

```
## # A tibble: 71 x 2
##   weight feed     
##    <dbl> <fct>    
## 1    179 horsebean
## 2    160 horsebean
## 3    136 horsebean
## 4    227 horsebean
## # ... with 67 more rows
```
…
