04_01_bring_your_own_data.knit
…
```
## # A tibble: 56 x 8
##    Site ABUND  AREA  DIST LDIST YR.ISOL GRAZE   ALT
##   <int> <dbl> <dbl> <int> <int>   <int> <int> <int>
## 1     1   5.3   0.1    39    39    1968     2   160
## 2     2   2     0.5   234   234    1920     5    60
## 3     3   1.5   0.5   104   311    1900     5   140
## # ... with 53 more rows
```
…
