birds.knit
…
q_10 <- quantile(birds$area, 0.1)
q_25 <- quantile(birds$area, 0.25)
q_80 <- quantile(birds$area, 0.8)

birds %>% 
  mutate(
    area_class = case_when(
      area < q_10  ~ "tiny",
      between(area, q_10, q_25) ~ "small",
      between(area, q_25, q_80) ~ "medium",
      area > q_80 ~ "large"
    )
  )

## # A tibble: 56 x 10
##     site abund  area  dist ldist isol_since graze   alt isol_years area_class
##    <int> <dbl> <dbl> <int> <int>      <int> <fct> <int>      <dbl> <chr>     
##  1     1   5.3   0.1    39    39       1968 2       160         53 tiny      
##  2     2   2     0.5   234   234       1920 5        60        101 tiny      
##  3     3   1.5   0.5   104   311       1900 5       140        121 tiny      
##  4     4  17.1   1      66    66       1966 3       160         55 small     
##  5     5  13.8   1     246   246       1918 5       140        103 small     
##  6     6  14.1   1     234   285       1965 3       130         56 small     
##  7     7   3.8   1     467   467       1955 5        90         66 small     
##  8     8   2.2   1     284  1829       1920 5        60        101 small     
##  9     9   3.3   1     156   156       1965 4       130         56 small     
## 10    10   3     1     311   571       1900 5       130        121 small     
## # ... with 46 more rows
