Introduction to R for Data Analysis: Solutions for day 2
…
1 ggplot2

1.1 and 1.2 Getting started with ggplot and palmerpenguins

# install.packages("tidyverse")
# install.packages("palmerpenguins")
library(tidyverse)
library(palmerpenguins)

Have a look at the penguin data set

penguins

# A tibble: 344 x 8
  species island    bill_length_mm bill_depth_mm flipper_length_mm
  <fct>   <fct>              <dbl>         <dbl>             <int>
1 Adelie  Torgersen           39.1          18.7               181
2 Adelie  Torgersen           39.5          17.4               186
3 Adelie  Torgersen           40.3          18                 195
4 Adelie  Torgersen           NA            NA                  NA
5 Adelie  Torgersen           36.7          19.3               193
6 Adelie  Torgersen           39.3          20.6               190
# ... with 338 more rows, and 3 more variables: body_mass_g <int>,
#   sex <fct>, year <int>
…
2 dplyr

library(tidyverse)
library(palmerpenguins)

2.2 Data transformation with dplyr

Find all penguins that 

 have a bill length between 40 and 45 mm.

filter(penguins, between(bill_length_mm, 40, 45))

# A tibble: 77 x 8
   species island    bill_length_mm bill_depth_mm flipper_length_mm
   <fct>   <fct>              <dbl>         <dbl>             <int>
 1 Adelie  Torgersen           40.3          18                 195
 2 Adelie  Torgersen           42            20.2               190
 3 Adelie  Torgersen           41.1          17.6               182
 4 Adelie  Torgersen           42.5          20.7               197
 5 Adelie  Biscoe              40.6          18.6               183
 6 Adelie  Biscoe              40.5          17.9               187
 7 Adelie  Biscoe              40.5          18.9               180
 8 Adelie  Dream               40.9          18.9               184
 9 Adelie  Dream               42.2          18.5               180
10 Adelie  Dream               40.8          18.4               195
# ... with 67 more rows, and 3 more variables: body_mass_g <int>,
#   sex <fct>, year <int>

# same as 
# filter(penguins, bill_length_mm < 45 & bill_length_mm > 40)

 for which we know the sex.

filter(penguins, !is.na(sex))

# A tibble: 333 x 8
   species island    bill_length_mm bill_depth_mm flipper_length_mm
   <fct>   <fct>              <dbl>         <dbl>             <int>
 1 Adelie  Torgersen           39.1          18.7               181
 2 Adelie  Torgersen           39.5          17.4               186
 3 Adelie  Torgersen           40.3          18                 195
 4 Adelie  Torgersen           36.7          19.3               193
 5 Adelie  Torgersen           39.3          20.6               190
 6 Adelie  Torgersen           38.9          17.8               181
 7 Adelie  Torgersen           39.2          19.6               195
 8 Adelie  Torgersen           41.1          17.6               182
 9 Adelie  Torgersen           38.6          21.2               191
10 Adelie  Torgersen           34.6          21.1               198
# ... with 323 more rows, and 3 more variables: body_mass_g <int>,
#   sex <fct>, year <int>

 which are of the species Adelie or Gentoo and live either on Dream or on Torgersen

filter(penguins, species %in% c("Adelie", "Gentoo") &
  island %in% c("Dream", "Torgersen"))

# A tibble: 108 x 8
   species island    bill_length_mm bill_depth_mm flipper_length_mm
   <fct>   <fct>              <dbl>         <dbl>             <int>
 1 Adelie  Torgersen           39.1          18.7               181
 2 Adelie  Torgersen           39.5          17.4               186
 3 Adelie  Torgersen           40.3          18                 195
 4 Adelie  Torgersen           NA            NA                  NA
 5 Adelie  Torgersen           36.7          19.3               193
 6 Adelie  Torgersen           39.3          20.6               190
 7 Adelie  Torgersen           38.9          17.8               181
 8 Adelie  Torgersen           39.2          19.6               195
 9 Adelie  Torgersen           34.1          18.1               193
10 Adelie  Torgersen           42            20.2               190
# ... with 98 more rows, and 3 more variables: body_mass_g <int>,
#   sex <fct>, year <int>
…
Sort 

 penguins to find penguins with lowest body mass

arrange(penguins, body_mass_g)

# A tibble: 344 x 8
   species   island    bill_length_mm bill_depth_mm flipper_length_mm
   <fct>     <fct>              <dbl>         <dbl>             <int>
 1 Chinstrap Dream               46.9          16.6               192
 2 Adelie    Biscoe              36.5          16.6               181
 3 Adelie    Biscoe              36.4          17.1               184
 4 Adelie    Biscoe              34.5          18.1               187
 5 Adelie    Dream               33.1          16.1               178
 6 Adelie    Torgersen           38.6          17                 188
 7 Chinstrap Dream               43.2          16.6               187
 8 Adelie    Biscoe              37.9          18.6               193
 9 Adelie    Dream               37.5          18.9               179
10 Adelie    Dream               37            16.9               185
# ... with 334 more rows, and 3 more variables: body_mass_g <int>,
#   sex <fct>, year <int>

 penguins to find penguins with highest body mass

arrange(penguins, desc(body_mass_g))

# A tibble: 344 x 8
   species island bill_length_mm bill_depth_mm flipper_length_mm
   <fct>   <fct>           <dbl>         <dbl>             <int>
 1 Gentoo  Biscoe           49.2          15.2               221
 2 Gentoo  Biscoe           59.6          17                 230
 3 Gentoo  Biscoe           51.1          16.3               220
 4 Gentoo  Biscoe           48.8          16.2               222
 5 Gentoo  Biscoe           45.2          16.4               223
 6 Gentoo  Biscoe           49.8          15.9               229
 7 Gentoo  Biscoe           48.4          14.6               213
 8 Gentoo  Biscoe           49.3          15.7               217
 9 Gentoo  Biscoe           55.1          16                 230
10 Gentoo  Biscoe           49.5          16.2               229
# ... with 334 more rows, and 3 more variables: body_mass_g <int>,
#   sex <fct>, year <int>

 penguins by species and sex, with longest flippers first

arrange(penguins, species, sex, desc(flipper_length_mm))

# A tibble: 344 x 8
   species island    bill_length_mm bill_depth_mm flipper_length_mm
   <fct>   <fct>              <dbl>         <dbl>             <int>
 1 Adelie  Dream               35.7          18                 202
 2 Adelie  Biscoe              38.6          17.2               199
 3 Adelie  Biscoe              38.1          16.5               198
 4 Adelie  Torgersen           39.6          17.2               196
 5 Adelie  Torgersen           40.3          18                 195
 6 Adelie  Torgersen           38.7          19                 195
 7 Adelie  Dream               36.4          17                 195
 8 Adelie  Biscoe              35.5          16.2               195
 9 Adelie  Dream               36            17.8               195
10 Adelie  Torgersen           36.7          19.3               193
# ... with 334 more rows, and 3 more variables: body_mass_g <int>,
#   sex <fct>, year <int>

Select 

 only the variables species, sex and year

select(penguins, species, sex, year)

# A tibble: 344 x 3
   species sex     year
   <fct>   <fct>  <int>
 1 Adelie  male    2007
 2 Adelie  female  2007
 3 Adelie  female  2007
 4 Adelie  <NA>    2007
 5 Adelie  female  2007
 6 Adelie  male    2007
 7 Adelie  female  2007
 8 Adelie  male    2007
 9 Adelie  <NA>    2007
10 Adelie  <NA>    2007
# ... with 334 more rows

 variables based on the following vector

cols <- c("species", "bill_length_mm", "flipper_length_mm", "body_mass_kg")
select(penguins, any_of(cols))

# A tibble: 344 x 3
   species bill_length_mm flipper_length_mm
   <fct>            <dbl>             <int>
 1 Adelie            39.1               181
 2 Adelie            39.5               186
 3 Adelie            40.3               195
 4 Adelie            NA                  NA
 5 Adelie            36.7               193
 6 Adelie            39.3               190
 7 Adelie            38.9               181
 8 Adelie            39.2               195
 9 Adelie            34.1               193
10 Adelie            42                 190
# ... with 334 more rows

# this would return  an error
select(penguins, all_of(cols))

Error: Can't subset columns that don't exist.
x Column `body_mass_kg` doesn't exist.

 only columns that contain measurements in mm

select(penguins, ends_with("mm"))

# A tibble: 344 x 3
   bill_length_mm bill_depth_mm flipper_length_mm
            <dbl>         <dbl>             <int>
 1           39.1          18.7               181
 2           39.5          17.4               186
 3           40.3          18                 195
 4           NA            NA                  NA
 5           36.7          19.3               193
 6           39.3          20.6               190
 7           38.9          17.8               181
 8           39.2          19.6               195
 9           34.1          18.1               193
10           42            20.2               190
# ... with 334 more rows
# or
#select(penguins, contains("_mm"))

Add a column 

 with abbreviations for the species (Adelie = A, Gentoo = G, Chinstrap = C).

mutate(penguins,
       species_short = case_when(
         species == "Adelie" ~ "A",
         species == "Gentoo" ~ "G",
         species == "Chinstrap" ~ "C"
       ))

# A tibble: 344 x 9
   species island    bill_length_mm bill_depth_mm flipper_length_mm
   <fct>   <fct>              <dbl>         <dbl>             <int>
 1 Adelie  Torgersen           39.1          18.7               181
 2 Adelie  Torgersen           39.5          17.4               186
 3 Adelie  Torgersen           40.3          18                 195
 4 Adelie  Torgersen           NA            NA                  NA
 5 Adelie  Torgersen           36.7          19.3               193
 6 Adelie  Torgersen           39.3          20.6               190
 7 Adelie  Torgersen           38.9          17.8               181
 8 Adelie  Torgersen           39.2          19.6               195
 9 Adelie  Torgersen           34.1          18.1               193
10 Adelie  Torgersen           42            20.2               190
# ... with 334 more rows, and 4 more variables: body_mass_g <int>,
#   sex <fct>, year <int>, species_short <chr>

 with the ratio of bill length to bill depth

mutate(penguins,
       ratio = bill_length_mm / bill_depth_mm)

# A tibble: 344 x 9
   species island    bill_length_mm bill_depth_mm flipper_length_mm
   <fct>   <fct>              <dbl>         <dbl>             <int>
 1 Adelie  Torgersen           39.1          18.7               181
 2 Adelie  Torgersen           39.5          17.4               186
 3 Adelie  Torgersen           40.3          18                 195
 4 Adelie  Torgersen           NA            NA                  NA
 5 Adelie  Torgersen           36.7          19.3               193
 6 Adelie  Torgersen           39.3          20.6               190
 7 Adelie  Torgersen           38.9          17.8               181
 8 Adelie  Torgersen           39.2          19.6               195
 9 Adelie  Torgersen           34.1          18.1               193
10 Adelie  Torgersen           42            20.2               190
# ... with 334 more rows, and 4 more variables: body_mass_g <int>,
#   sex <fct>, year <int>, ratio <dbl>
…
What is not tidy about this data set? Can you fix it?

 The variable income is spread across multiple columns, so we have to use pivot_longer to pivot the columns containing the income information:

pivot_longer(relig_income,
             cols = !religion,
             names_to = "income",
             values_to = "count"
             )

# A tibble: 180 x 3
   religion income             count
   <chr>    <chr>              <dbl>
 1 Agnostic <$10k                 27
 2 Agnostic $10-20k               34
 3 Agnostic $20-30k               60
 4 Agnostic $30-40k               81
 5 Agnostic $40-50k               76
 6 Agnostic $50-75k              137
 7 Agnostic $75-100k             122
 8 Agnostic $100-150k            109
 9 Agnostic >150k                 84
10 Agnostic Don't know/refused    96
# ... with 170 more rows

2. billboard

Have a look at the billboard data set that is included in the tidyverse package. The data set contains information about the chart rank of songs in the year 2000.

billboard

# A tibble: 317 x 79
   artist track date.entered   wk1   wk2   wk3   wk4   wk5   wk6   wk7
   <chr>  <chr> <date>       <dbl> <dbl> <dbl> <dbl> <dbl> <dbl> <dbl>
 1 2 Pac  Baby~ 2000-02-26      87    82    72    77    87    94    99
 2 2Ge+h~ The ~ 2000-09-02      91    87    92    NA    NA    NA    NA
 3 3 Doo~ Kryp~ 2000-04-08      81    70    68    67    66    57    54
 4 3 Doo~ Loser 2000-10-21      76    76    72    69    67    65    55
 5 504 B~ Wobb~ 2000-04-15      57    34    25    17    17    31    36
 6 98^0   Give~ 2000-08-19      51    39    34    26    26    19     2
 7 A*Tee~ Danc~ 2000-07-08      97    97    96    95   100    NA    NA
 8 Aaliy~ I Do~ 2000-01-29      84    62    51    41    38    35    35
 9 Aaliy~ Try ~ 2000-03-18      59    53    38    28    21    18    16
10 Adams~ Open~ 2000-08-26      76    76    74    69    68    67    61
# ... with 307 more rows, and 69 more variables: wk8 <dbl>,
#   wk9 <dbl>, wk10 <dbl>, wk11 <dbl>, wk12 <dbl>, wk13 <dbl>,
#   wk14 <dbl>, wk15 <dbl>, wk16 <dbl>, wk17 <dbl>, wk18 <dbl>,
#   wk19 <dbl>, wk20 <dbl>, wk21 <dbl>, wk22 <dbl>, wk23 <dbl>,
#   wk24 <dbl>, wk25 <dbl>, wk26 <dbl>, wk27 <dbl>, wk28 <dbl>,
#   wk29 <dbl>, wk30 <dbl>, wk31 <dbl>, wk32 <dbl>, wk33 <dbl>,
#   wk34 <dbl>, wk35 <dbl>, wk36 <dbl>, wk37 <dbl>, wk38 <dbl>,
#   wk39 <dbl>, wk40 <dbl>, wk41 <dbl>, wk42 <dbl>, wk43 <dbl>,
#   wk44 <dbl>, wk45 <dbl>, wk46 <dbl>, wk47 <dbl>, wk48 <dbl>,
…
What is not tidy about this data set? Can you fix it?

 The variable week is spread across multiple columns. We have to use pivot longer to pivot the week columns:

pivot_longer(billboard,
             cols = wk1:wk76,
             names_to = "week",
             values_to = "rank")

# A tibble: 24,092 x 5
   artist track                   date.entered week   rank
   <chr>  <chr>                   <date>       <chr> <dbl>
 1 2 Pac  Baby Don't Cry (Keep... 2000-02-26   wk1      87
 2 2 Pac  Baby Don't Cry (Keep... 2000-02-26   wk2      82
 3 2 Pac  Baby Don't Cry (Keep... 2000-02-26   wk3      72
 4 2 Pac  Baby Don't Cry (Keep... 2000-02-26   wk4      77
 5 2 Pac  Baby Don't Cry (Keep... 2000-02-26   wk5      87
 6 2 Pac  Baby Don't Cry (Keep... 2000-02-26   wk6      94
 7 2 Pac  Baby Don't Cry (Keep... 2000-02-26   wk7      99
 8 2 Pac  Baby Don't Cry (Keep... 2000-02-26   wk8      NA
 9 2 Pac  Baby Don't Cry (Keep... 2000-02-26   wk9      NA
10 2 Pac  Baby Don't Cry (Keep... 2000-02-26   wk10     NA
# ... with 24,082 more rows

Extras

The argument values_drop_na drops rows with missing values in the rank column. Here it makes sense because not every song is in the charts for all 76 weeks.

With the names_prefix argument we can remove the wk before the values of the week variable. This makes it easier to work with later.

pivot_longer(billboard,
             cols = wk1:wk76,
             names_to = "week",
             names_prefix = "wk",
             values_to = "rank",
             values_drop_na = TRUE)

# A tibble: 5,307 x 5
   artist  track                   date.entered week   rank
   <chr>   <chr>                   <date>       <chr> <dbl>
 1 2 Pac   Baby Don't Cry (Keep... 2000-02-26   1        87
 2 2 Pac   Baby Don't Cry (Keep... 2000-02-26   2        82
 3 2 Pac   Baby Don't Cry (Keep... 2000-02-26   3        72
 4 2 Pac   Baby Don't Cry (Keep... 2000-02-26   4        77
 5 2 Pac   Baby Don't Cry (Keep... 2000-02-26   5        87
 6 2 Pac   Baby Don't Cry (Keep... 2000-02-26   6        94
 7 2 Pac   Baby Don't Cry (Keep... 2000-02-26   7        99
 8 2Ge+her The Hardest Part Of ... 2000-09-02   1        91
 9 2Ge+her The Hardest Part Of ... 2000-09-02   2        87
10 2Ge+her The Hardest Part Of ... 2000-09-02   3        92
# ... with 5,297 more rows

3. fish_encounters

Have a look at the fish_encounters data set that is included in the tidyverse package. The data set contains records of fish detected by different automatic monitoring stations.

fish_encounters

# A tibble: 114 x 3
   fish  station  seen
   <fct> <fct>   <int>
 1 4842  Release     1
 2 4842  I80_1       1
 3 4842  Lisbon      1
 4 4842  Rstr        1
 5 4842  Base_TD     1
 6 4842  BCE         1
 7 4842  BCW         1
 8 4842  BCE2        1
 9 4842  BCW2        1
10 4842  MAE         1
# ... with 104 more rows
…
